{
  "Records": [
    {
      "eventVersion": "2.1",
      "eventSource": "aws:s3",
      "awsRegion": "us-east-1",
      "eventTime": "2020-08-01T07:49:54.277Z",
      "eventName": "ObjectCreated:Put",
      "userIdentity": {
        "principalId": "AWS:AROAUJP33UDW6YJ3X3R5I:user850662=saurabhjn@gmail.com"
      },
      "requestParameters": {
        "sourceIPAddress": "218.191.19.197"
      },
      "responseElements": {
        "x-amz-request-id": "5D9C836AD4CDF669",
        "x-amz-id-2": "gu/PEipAHUZD0GpbEmb6XzEhmFOQjGgVPtia6mXDSxAuENqAYacJOzuftNjgqKJl9Kc+rFN9y4E3gwF4vNvdnRd+czT3vOMq"
      },
      "s3": {
        "s3SchemaVersion": "1.0",
        "configurationId": "sj-prj2-s3-newfile",
        "bucket": {
          "name": "sj-prj2-s3",
          "ownerIdentity": {
            "principalId": "A3HT1D962C9WCP"
          },
          "arn": "arn:aws:s3:::sj-prj2-s3"
        },
        "object": {
          "key": "unopoints.txt",
          "size": 166,
          "eTag": "fbb0b82ccfec7f89f2f24d6f56378b98",
          "versionId": "5MoVJ4sXHTJg3wizSkBFIntFpMuMUa0e",
          "sequencer": "005F251EA693828D41"
        }
      }
    }
  ]
}